<?xml version="1.0" encoding="UTF-8" standalone="no"?>
<svg xmlns="http://www.w3.org/2000/svg" xml:space="preserve" width="7" height="10" preserveAspectRatio="xMinYMin meet" viewBox="0 0 7 10" version="1.1">
    <polygon points="0,0 0,10 7,5" fill="#333" fill-rule="nonzero"/>
</svg>
