<?xml version="1.0" encoding="UTF-8" standalone="no"?>
<svg xmlns="http://www.w3.org/2000/svg" xml:space="preserve" width="60" height="40" preserveAspectRatio="xMinYMin meet" viewBox="0 0 60 40" version="1.1">
    <polygon points="35,0 35,40 0,20" fill="#333" fill-rule="nonzero"/>
    <polygon points="35,0 35,40 0,20" fill="#333" fill-rule="nonzero" transform="translate(25)"/>
</svg>
