<svg xmlns="http://www.w3.org/2000/svg" xml:space="preserve" width="40" height="35" preserveAspectRatio="xMinYMin meet" viewBox="0 0 40 35" version="1.1">
    <polygon points="0,35 20,0 40,35" fill="#888" fill-rule="nonzero"/>
</svg>
