<svg xmlns="http://www.w3.org/2000/svg" xmlns:xlink="http://www.w3.org/1999/xlink" version="1.1" viewBox="0 0 59 59" id="search-icon" xml:space="preserve">
    <defs id="defs6">
        <clipPath id="clipPath16"><path d="M 0,0 L 47,0 47,47 0,47 z"/></clipPath>
    </defs>
    <g clip-path="url(#clipPath16)" transform="matrix(1.25,0,0,-1.25,0,59)">
        <g transform="translate(2,28.2378)">
            <path d="M 0,0 C 0,9.374 7.625,17 17,17 26.373,17 34,9.374 34,0 34,-9.374 26.373,-17 17,-17 7.625,-17 0,-9.374 0,0 M 45.236,-25.763 31.613,-12.139 C 34.352,-8.846 36,-4.616 36,0 36,10.494 27.494,19 17,19 6.508,19 -2,10.494 -2,0 c 0,-10.492 8.508,-19 19,-19 4.617,0 8.846,1.648 12.139,4.387 l 13.623,-13.625 2.474,2.475 z" style="fill:#333;fill-opacity:1;fill-rule:nonzero;stroke:none"/>
        </g>
    </g>
</svg>
